R and Python
…
# Save the data to a CSV file in the 'data' subdirectory
# First, create the directory if it doesn't exist
write.csv(mock_data, "../../../data/mock_data.csv", row.names = FALSE)

# print the head of the metadata
mock_data

# A tibble: 100 × 3
     age group outcome
   <int> <chr>   <int>
 1    54 A           0
 2    18 A           0
 3    42 A           0
 4    27 A           0
 5    53 B           1
 6    35 C           0
 7    64 A           1
 8    41 B           1
 9    24 A           0
10    53 C           1
# ℹ 90 more rows
…
Rows: 100 Columns: 4
── Column specification ────────────────────────────────────────────────────────
Delimiter: ","
chr (1): group
dbl (3): age, outcome, predicted_outcome

ℹ Use `spec()` to retrieve the full column specification for this data.
ℹ Specify the column types or set `show_col_types = FALSE` to quiet this message.

Code

# print the head of the prediction
df

# A tibble: 100 × 4
     age group outcome predicted_outcome
   <dbl> <chr>   <dbl>             <dbl>
 1    54 A           0                 1
 2    18 A           0                 0
 3    42 A           0                 0
 4    27 A           0                 0
 5    53 B           1                 1
 6    35 C           0                 0
 7    64 A           1                 1
 8    41 B           1                 1
 9    24 A           0                 0
10    53 C           1                 1
# ℹ 90 more rows
…
